[
  {
    "menu":"Layout",
    "icon" : "fas fa-th-large",
    "submenu": [
      {
        "nome" : "Grid",
        "icon" : "fas fa-th-large",
        "href" : "grid"
      }
    ]
  },
  {
    "menu":"Componentes",
    "icon" : "fas fa-th-large",
    "submenu": [
      {
        "nome" : "Botões",
        "icon" : "",
        "href" : "buttons"
      },
      {
        "nome" : "Breadcrumb",
        "icon" : "",
        "href" : "breadcrumb"
      },
      {
        "nome" : "Cards",
        "icon" : "far fa-window-maximize",
        "href" : "cards"
      },
      {
        "nome" : "Forms",
        "icon" : "fas fa-th-list",
        "href" : "forms"
      },
      {
        "nome" : "Tables",
        "icon" : "fas fa-table",
        "href" : "tables"
      }
    ]
  }
]
